{
    "KPlugin": {
        "BugReportUrl": "https://bugs.kde.org/enter_bug.cgi?product=systemsettings&component=kcm_flatpak",
        "Description": "Configure Flatpak Permissions",
        "Description[ar]": "اضبط تصاريح فلاتباك",
        "Description[ca@valencia]": "Configura els permisos de Flatpak",
        "Description[ca]": "Configura els permisos del Flatpak",
        "Description[cs]": "Nastavte oprávnění Flatpak",
        "Description[de]": "Flatpak-Berechtigungen einrichten",
        "Description[en_GB]": "Configure Flatpak Permissions",
        "Description[eo]": "Agordi Flatpak-permesojn",
        "Description[es]": "Configurar los permisos de Flatpak",
        "Description[eu]": "Konfiguratu «Flatpak»en baimenak",
        "Description[fi]": "Flatpak-käyttöoikeusasetukset",
        "Description[fr]": "Configurer les permissions pour Flatpak",
        "Description[gl]": "Configure is permisos de Flatpak.",
        "Description[ia]": "Configura permissiones de Flatpak",
        "Description[id]": "Atur Perizinan Flatpak",
        "Description[it]": "Configura i permessi per Flatpak",
        "Description[ka]": "Flatpak-ის წვდომების მორგება",
        "Description[ko]": "Flatpak 권한 설정",
        "Description[nl]": "Toegangsrechten van Flatpak configureren",
        "Description[nn]": "Set opp innstillingar for Flatpak-løyve",
        "Description[pa]": "ਫ਼ਲੈਟਪੈਕ ਇਜਾਜ਼ਤਾਂ ਦੀ ਸੰਰਚਨਾ",
        "Description[pl]": "Ustaw uprawnień Flatpaka",
        "Description[pt]": "Configurar as Permissões do Flatpak",
        "Description[ru]": "Настройка прав доступа пакетов Flatpak",
        "Description[sk]": "Nastaviť oprávnenia Flatpak",
        "Description[sl]": "Konfiguriraj dovoljenja za Flatpak",
        "Description[ta]": "ஃபலாட்பாக் அனுமதிகளை அமை",
        "Description[tr]": "Flatpak İzinlerini Yapılandır",
        "Description[uk]": "Налаштовування прав доступу Flatpak",
        "Description[x-test]": "xxConfigure Flatpak Permissionsxx",
        "Description[zh_CN]": "配置 Flatpak 权限",
        "Description[zh_TW]": "設定 Flatpak 權限",
        "FormFactors": [
            "desktop",
            "handset",
            "tablet",
            "mediacenter"
        ],
        "Icon": "flatpak-discover",
        "Name": "Flatpak Permissions",
        "Name[ar]": "تصاريح فلاتباك",
        "Name[ca@valencia]": "Permisos de Flatpak",
        "Name[ca]": "Permisos del Flatpak",
        "Name[cs]": "Oprávnění Flatpak",
        "Name[de]": "Flatpak-Berechtigungen",
        "Name[en_GB]": "Flatpak Permissions",
        "Name[eo]": "Flatpak-permesoj",
        "Name[es]": "Permisos de Flatpak",
        "Name[eu]": "«Flatpak»en baimenak",
        "Name[fi]": "Flatpak-käyttöoikeudet",
        "Name[fr]": "Permissions pour Flatpak",
        "Name[gl]": "Permisos de Flatpak",
        "Name[ia]": "Permissiones de Flatpak",
        "Name[id]": "Perizinan Flatpak",
        "Name[it]": "Permessi per Flatpak",
        "Name[ka]": "Flatpak-ის წვდომები",
        "Name[ko]": "Flatpak 권한",
        "Name[nl]": "Toegangsrechten van Flatpak",
        "Name[nn]": "Flatpak-løyve",
        "Name[pa]": "ਫ਼ਲੈਟਪੈਕ ਇਜਾਜ਼ਤਾਂ",
        "Name[pl]": "Uprawnienia Flatpaka",
        "Name[pt]": "Permissões do Flatpak",
        "Name[sk]": "Oprávnenia Flatpak",
        "Name[sl]": "Dovoljenja za Flatpak",
        "Name[ta]": "ஃபலாட்பாக் அனுமதிகள்",
        "Name[tr]": "Flatpak İzinleri",
        "Name[uk]": "Права доступу Flatpak",
        "Name[x-test]": "xxFlatpak Permissionsxx",
        "Name[zh_CN]": "Flatpak 权限",
        "Name[zh_TW]": "Flatpak 權限"
    },
    "X-KDE-Keywords": "Flatpak,permission,permissions,access,sandbox,sandboxed,filesystem,file,files,folder,folders,network,networks,networking,bluetooth,print,printer,printing,audio,sound,login,remote login,ssh,smart card,kvm,device,session,session bus,system,system bus,environment,environment variable",
    "X-KDE-System-Settings-Parent-Category": "applications"
}
